Library/Bee/artifacts/mvdfrm/UnityEngine.UI.ref.dll_F37DC0DEF554539B.mvfrm
Library/Bee/artifacts/mvdfrm/UnityEngine.AIModule.dll_B370AB61DE89E417.mvfrm
Library/Bee/artifacts/mvdfrm/UnityEngine.AccessibilityModule.dll_44AA15219AD4A9F3.mvfrm
Library/Bee/artifacts/mvdfrm/UnityEngine.AndroidJNIModule.dll_6E3FA6DA651BB555.mvfrm
Library/Bee/artifacts/mvdfrm/UnityEngine.AnimationModule.dll_446449F4DADD53D9.mvfrm
Library/Bee/artifacts/mvdfrm/UnityEngine.AssetBundleModule.dll_4EE880E88FDC5027.mvfrm
Library/Bee/artifacts/mvdfrm/UnityEngine.AudioModule.dll_6AC8C38D99FC968B.mvfrm
Library/Bee/artifacts/mvdfrm/UnityEngine.ClothModule.dll_D1B120887419756F.mvfrm
Library/Bee/artifacts/mvdfrm/UnityEngine.ClusterInputModule.dll_30B200EFC2444F1F.mvfrm
Library/Bee/artifacts/mvdfrm/UnityEngine.ClusterRendererModule.dll_E536D8368E4D2D92.mvfrm
Library/Bee/artifacts/mvdfrm/UnityEngine.ContentLoadModule.dll_E7FEDA295E5EF814.mvfrm
Library/Bee/artifacts/mvdfrm/UnityEngine.CoreModule.dll_48BF1B598D8A274E.mvfrm
Library/Bee/artifacts/mvdfrm/UnityEngine.CrashReportingModule.dll_B23C3EE51BA357A6.mvfrm
Library/Bee/artifacts/mvdfrm/UnityEngine.DSPGraphModule.dll_D48429BA03F9AA0C.mvfrm
Library/Bee/artifacts/mvdfrm/UnityEngine.DirectorModule.dll_CF32C8509198D8EB.mvfrm
Library/Bee/artifacts/mvdfrm/UnityEngine.GIModule.dll_4BACF46F7A38CC31.mvfrm
Library/Bee/artifacts/mvdfrm/UnityEngine.GameCenterModule.dll_988CF0F52B5CA646.mvfrm
Library/Bee/artifacts/mvdfrm/UnityEngine.GridModule.dll_26303747A5DEBD45.mvfrm
Library/Bee/artifacts/mvdfrm/UnityEngine.HotReloadModule.dll_C5AD07FAB6106F5B.mvfrm
Library/Bee/artifacts/mvdfrm/UnityEngine.IMGUIModule.dll_A32862F4602E2A6C.mvfrm
Library/Bee/artifacts/mvdfrm/UnityEngine.ImageConversionModule.dll_5128D5E71071E586.mvfrm
Library/Bee/artifacts/mvdfrm/UnityEngine.InputLegacyModule.dll_E02D9C0727CE0618.mvfrm
Library/Bee/artifacts/mvdfrm/UnityEngine.InputModule.dll_D13E8B3E1034BB2F.mvfrm
Library/Bee/artifacts/mvdfrm/UnityEngine.JSONSerializeModule.dll_A4C19E5D9A100A7D.mvfrm
Library/Bee/artifacts/mvdfrm/UnityEngine.LocalizationModule.dll_6EFECB4259C04218.mvfrm
Library/Bee/artifacts/mvdfrm/UnityEngine.ParticleSystemModule.dll_054E883189B4E334.mvfrm
Library/Bee/artifacts/mvdfrm/UnityEngine.PerformanceReportingModule.dll_064BC8B1AC208A0D.mvfrm
Library/Bee/artifacts/mvdfrm/UnityEngine.Physics2DModule.dll_910A39E57BDA4B6E.mvfrm
Library/Bee/artifacts/mvdfrm/UnityEngine.PhysicsModule.dll_042C5938A3C850BC.mvfrm
Library/Bee/artifacts/mvdfrm/UnityEngine.ProfilerModule.dll_017901872AF25FF8.mvfrm
Library/Bee/artifacts/mvdfrm/UnityEngine.PropertiesModule.dll_C5C830339E480A82.mvfrm
Library/Bee/artifacts/mvdfrm/UnityEngine.RuntimeInitializeOnLoadManagerInitializerModule.dll_44ED378EBCF39837.mvfrm
Library/Bee/artifacts/mvdfrm/UnityEngine.ScreenCaptureModule.dll_BEA94BE2AE7C36DF.mvfrm
Library/Bee/artifacts/mvdfrm/UnityEngine.SharedInternalsModule.dll_D53A14BC879FE0D6.mvfrm
Library/Bee/artifacts/mvdfrm/UnityEngine.SpriteMaskModule.dll_81B963854CCC3BC0.mvfrm
Library/Bee/artifacts/mvdfrm/UnityEngine.SpriteShapeModule.dll_6849AE43457E8831.mvfrm
Library/Bee/artifacts/mvdfrm/UnityEngine.StreamingModule.dll_F8F937452A650B17.mvfrm
Library/Bee/artifacts/mvdfrm/UnityEngine.SubstanceModule.dll_D5A44B8E75B80925.mvfrm
Library/Bee/artifacts/mvdfrm/UnityEngine.SubsystemsModule.dll_EC66C9E71B1423D3.mvfrm
Library/Bee/artifacts/mvdfrm/UnityEngine.TLSModule.dll_D51E78B81E161290.mvfrm
Library/Bee/artifacts/mvdfrm/UnityEngine.TerrainModule.dll_1E72D4A7798699AA.mvfrm
Library/Bee/artifacts/mvdfrm/UnityEngine.TerrainPhysicsModule.dll_05C93104A2F7DDC1.mvfrm
Library/Bee/artifacts/mvdfrm/UnityEngine.TextCoreFontEngineModule.dll_89B9A9FBDEF8A90C.mvfrm
Library/Bee/artifacts/mvdfrm/UnityEngine.TextCoreTextEngineModule.dll_D1A1E06D6E7C622A.mvfrm
Library/Bee/artifacts/mvdfrm/UnityEngine.TextRenderingModule.dll_E7E8BDED65B3B6D4.mvfrm
Library/Bee/artifacts/mvdfrm/UnityEngine.TilemapModule.dll_BD6F3C2891437AB3.mvfrm
Library/Bee/artifacts/mvdfrm/UnityEngine.UIElementsModule.dll_F0A52B4F1E405FCA.mvfrm
Library/Bee/artifacts/mvdfrm/UnityEngine.UIModule.dll_AEE4498F3AD0E9C3.mvfrm
Library/Bee/artifacts/mvdfrm/UnityEngine.UmbraModule.dll_E59D6FA6272341FE.mvfrm
Library/Bee/artifacts/mvdfrm/UnityEngine.UnityAnalyticsCommonModule.dll_A18A85F5C609286B.mvfrm
Library/Bee/artifacts/mvdfrm/UnityEngine.UnityAnalyticsModule.dll_24EDF8FB35DC3530.mvfrm
Library/Bee/artifacts/mvdfrm/UnityEngine.UnityConnectModule.dll_9E750FE90B447D04.mvfrm
Library/Bee/artifacts/mvdfrm/UnityEngine.UnityCurlModule.dll_7780EB264AF145C6.mvfrm
Library/Bee/artifacts/mvdfrm/UnityEngine.UnityTestProtocolModule.dll_27A1BE5EC5623D34.mvfrm
Library/Bee/artifacts/mvdfrm/UnityEngine.UnityWebRequestAssetBundleModule.dll_E19819688D82BC01.mvfrm
Library/Bee/artifacts/mvdfrm/UnityEngine.UnityWebRequestAudioModule.dll_7E481C90328B54A5.mvfrm
Library/Bee/artifacts/mvdfrm/UnityEngine.UnityWebRequestModule.dll_62C7DD911B668005.mvfrm
Library/Bee/artifacts/mvdfrm/UnityEngine.UnityWebRequestTextureModule.dll_11BC789BA2AC211A.mvfrm
Library/Bee/artifacts/mvdfrm/UnityEngine.UnityWebRequestWWWModule.dll_9C6425C95E3C1E96.mvfrm
Library/Bee/artifacts/mvdfrm/UnityEngine.VFXModule.dll_55FD1126F4837BFD.mvfrm
Library/Bee/artifacts/mvdfrm/UnityEngine.VRModule.dll_01B67014DC8B6F3B.mvfrm
Library/Bee/artifacts/mvdfrm/UnityEngine.VehiclesModule.dll_46F5C1D00BC2A886.mvfrm
Library/Bee/artifacts/mvdfrm/UnityEngine.VideoModule.dll_8FD247F85C8EB230.mvfrm
Library/Bee/artifacts/mvdfrm/UnityEngine.VirtualTexturingModule.dll_8F14D3FC2B5ABC6C.mvfrm
Library/Bee/artifacts/mvdfrm/UnityEngine.WindModule.dll_BF0DF6821EC0A5B7.mvfrm
Library/Bee/artifacts/mvdfrm/UnityEngine.XRModule.dll_3475331965C5BC99.mvfrm
Library/Bee/artifacts/mvdfrm/UnityEngine.dll_FCE98284D626A0E7.mvfrm
Library/Bee/artifacts/mvdfrm/Unity.Collections.LowLevel.ILSupport.dll_2E40CE80E145E521.mvfrm
Library/Bee/artifacts/mvdfrm/Unity.VisualScripting.Antlr3.Runtime.dll_DACAA631817C5F43.mvfrm